^F:\ITB\KULIAH\SEMESTER8\KRIPTOGRAFI\TUBES1\TUBES1_KRIPTOGRAFI\GUISTEGANOGRAPHYV2\GUISTEGANOGRAPHYV2\FORM1.RESX|F:\ITB\KULIAH\SEMESTER8\KRIPTOGRAFI\TUBES1\TUBES1_KRIPTOGRAFI\GUISTEGANOGRAPHYV2\GUISTEGANOGRAPHYV2\PROPERTIES\RESOURCES.RESX
F:\ITB\KULIAH\SEMESTER8\KRIPTOGRAFI\TUBES1\TUBES1_KRIPTOGRAFI\GUISTEGANOGRAPHYV2\GUISTEGANOGRAPHYV2\OBJ\X86\RELEASE\GUISTEGANOGRAPHYV2.FORM1.RESOURCES
F:\ITB\KULIAH\SEMESTER8\KRIPTOGRAFI\TUBES1\TUBES1_KRIPTOGRAFI\GUISTEGANOGRAPHYV2\GUISTEGANOGRAPHYV2\OBJ\X86\RELEASE\STEGOPICT.PROPERTIES.RESOURCES.RESOURCES
F:\ITB\KULIAH\SEMESTER8\KRIPTOGRAFI\TUBES1\TUBES1_KRIPTOGRAFI\GUISTEGANOGRAPHYV2\GUISTEGANOGRAPHYV2\OBJ\X86\RELEASE\STEGOPICT.FORM1.RESOURCES
